\relax 
\providecommand\hyper@newdestlabel[2]{}
\providecommand\zref@newlabel[2]{}
\providecommand\HyperFirstAtBeginDocument{\AtBeginDocument}
\HyperFirstAtBeginDocument{\ifx\hyper@anchor\@undefined
\global\let\oldcontentsline\contentsline
\gdef\contentsline#1#2#3#4{\oldcontentsline{#1}{#2}{#3}}
\global\let\oldnewlabel\newlabel
\gdef\newlabel#1#2{\newlabelxx{#1}#2}
\gdef\newlabelxx#1#2#3#4#5#6{\oldnewlabel{#1}{{#2}{#3}}}
\AtEndDocument{\ifx\hyper@anchor\@undefined
\let\contentsline\oldcontentsline
\let\newlabel\oldnewlabel
\fi}
\fi}
\global\let\hyper@last\relax 
\gdef\HyperFirstAtBeginDocument#1{#1}
\providecommand*\HyPL@Entry[1]{}
\HyPL@Entry{0<</S/D>>}
\HyPL@Entry{1<</S/D>>}
\@writefile{toc}{\contentsline {section}{\numberline {1}الگوریتم پیاده‌سازی شده}{1}{section.0.1}}
\@writefile{toc}{\contentsline {section}{\numberline {2}سوالات}{1}{section.0.2}}
\@writefile{toc}{\contentsline {section}{\numberline {3}نتایج}{1}{section.0.3}}
\@writefile{lol}{\contentsline {lstlisting}{codes/1.out}{1}{lstlisting.0.-1}}
\@writefile{lol}{\contentsline {lstlisting}{codes/2\textunderscore 2.out}{2}{lstlisting.0.-2}}
\@writefile{lol}{\contentsline {lstlisting}{codes/2\textunderscore 3.out}{2}{lstlisting.0.-3}}
\@writefile{lol}{\contentsline {lstlisting}{codes/2\textunderscore 5.out}{6}{lstlisting.0.-4}}
