Trees: 5
Removed Features: age
Scores: [0.8524590163934426, 0.8524590163934426, 0.8524590163934426, 0.7377049180327869, 0.8032786885245902]
Mean Accuracy: 0.8196721311475409


Trees: 5
Removed Features: cp
Scores: [0.7540983606557377, 0.6885245901639344, 0.7868852459016393, 0.7213114754098361, 0.7540983606557377]
Mean Accuracy: 0.7409836065573769


Trees: 5
Removed Features: trestbps
Scores: [0.7704918032786885, 0.8524590163934426, 0.8360655737704918, 0.7704918032786885, 0.8032786885245902]
Mean Accuracy: 0.8065573770491803


Trees: 5
Removed Features: chol
Scores: [0.8360655737704918, 0.7540983606557377, 0.7049180327868853, 0.7704918032786885, 0.7377049180327869]
Mean Accuracy: 0.7606557377049181


Trees: 5
Removed Features: fbs
Scores: [0.8852459016393442, 0.8032786885245902, 0.7868852459016393, 0.7213114754098361, 0.7704918032786885]
Mean Accuracy: 0.7934426229508196


Trees: 5
Removed Features: restecg
Scores: [0.7868852459016393, 0.7049180327868853, 0.7704918032786885, 0.8360655737704918, 0.7540983606557377]
Mean Accuracy: 0.7704918032786886


Trees: 5
Removed Features: thalach
Scores: [0.7377049180327869, 0.7540983606557377, 0.7868852459016393, 0.7704918032786885, 0.7049180327868853]
Mean Accuracy: 0.7508196721311476


Trees: 5
Removed Features: exang
Scores: [0.819672131147541, 0.7540983606557377, 0.8524590163934426, 0.8524590163934426, 0.7540983606557377]
Mean Accuracy: 0.8065573770491803


Trees: 5
Removed Features: oldpeak
Scores: [0.8360655737704918, 0.8688524590163934, 0.7213114754098361, 0.6885245901639344, 0.7049180327868853]
Mean Accuracy: 0.7639344262295082


Trees: 5
Removed Features: slope
Scores: [0.6065573770491803, 0.7704918032786885, 0.7377049180327869, 0.7868852459016393, 0.7704918032786885]
Mean Accuracy: 0.7344262295081967


Trees: 5
Removed Features: ca
Scores: [0.7213114754098361, 0.7868852459016393, 0.7540983606557377, 0.8032786885245902, 0.6721311475409836]
Mean Accuracy: 0.7475409836065574


Trees: 5
Removed Features: thal
Scores: [0.8360655737704918, 0.6885245901639344, 0.8360655737704918, 0.8360655737704918, 0.7213114754098361]
Mean Accuracy: 0.7836065573770492


Trees: 5
Removed Features: age
Scores: [0.819672131147541, 0.6885245901639344, 0.7540983606557377, 0.7704918032786885, 0.8032786885245902]
Mean Accuracy: 0.7672131147540983


Trees: 5
Removed Features: cp
Scores: [0.6885245901639344, 0.7377049180327869, 0.7868852459016393, 0.7049180327868853, 0.7049180327868853]
Mean Accuracy: 0.7245901639344263


Trees: 5
Removed Features: trestbps
Scores: [0.7704918032786885, 0.7213114754098361, 0.8032786885245902, 0.7049180327868853, 0.7704918032786885]
Mean Accuracy: 0.7540983606557378


Trees: 5
Removed Features: chol
Scores: [0.7540983606557377, 0.7704918032786885, 0.7540983606557377, 0.6885245901639344, 0.7377049180327869]
Mean Accuracy: 0.740983606557377


Trees: 5
Removed Features: fbs
Scores: [0.7868852459016393, 0.7868852459016393, 0.7704918032786885, 0.7704918032786885, 0.819672131147541]
Mean Accuracy: 0.7868852459016394


Trees: 5
Removed Features: restecg
Scores: [0.7540983606557377, 0.7868852459016393, 0.7540983606557377, 0.7540983606557377, 0.7213114754098361]
Mean Accuracy: 0.7540983606557377


Trees: 5
Removed Features: thalach
Scores: [0.7377049180327869, 0.7540983606557377, 0.8032786885245902, 0.7704918032786885, 0.6885245901639344]
Mean Accuracy: 0.7508196721311475


Trees: 5
Removed Features: exang
Scores: [0.7377049180327869, 0.7704918032786885, 0.6885245901639344, 0.7377049180327869, 0.7213114754098361]
Mean Accuracy: 0.7311475409836066


Trees: 5
Removed Features: oldpeak
Scores: [0.6885245901639344, 0.7213114754098361, 0.7540983606557377, 0.7868852459016393, 0.7377049180327869]
Mean Accuracy: 0.7377049180327868


Trees: 5
Removed Features: slope
Scores: [0.7213114754098361, 0.7377049180327869, 0.7213114754098361, 0.7049180327868853, 0.6721311475409836]
Mean Accuracy: 0.7114754098360656


Trees: 5
Removed Features: ca
Scores: [0.7704918032786885, 0.7213114754098361, 0.6229508196721312, 0.7704918032786885, 0.7377049180327869]
Mean Accuracy: 0.7245901639344263


Trees: 5
Removed Features: thal
Scores: [0.6557377049180327, 0.8032786885245902, 0.7213114754098361, 0.6721311475409836, 0.7704918032786885]
Mean Accuracy: 0.7245901639344263


